Directory,Speaker Label,Gender,Word,Vowel Phoneme,Class Number,Time Marker,Formant 1,Formant 2,Formant 3
C:\Users\attar\PycharmProjects\speech-assignment\ABI-1 Corpus\accents\brm_001\female\alw001,1,F,heed,IY,2,1.039158,0.045955581811244935,0.754294940957831,0.8945743307430715
C:\Users\attar\PycharmProjects\speech-assignment\ABI-1 Corpus\accents\brm_001\female\alw001,1,F,hard,AA,1,4.92282,0.1592815347400774,0.2342530512769466,0.7975289655832212
C:\Users\attar\PycharmProjects\speech-assignment\ABI-1 Corpus\accents\brm_001\female\alw001,1,F,hoid,OY,3,14.754298,0.06157094268098145,0.5566738809538786,0.7948608670290107
C:\Users\attar\PycharmProjects\speech-assignment\ABI-1 Corpus\accents\brm_001\female\cxb001,2,F,heed,IY,2,0.8464119999999999,0.03572514244085341,0.7446134786586782,1.0
C:\Users\attar\PycharmProjects\speech-assignment\ABI-1 Corpus\accents\brm_001\female\cxb001,2,F,hard,AA,1,3.881948,0.17594550861433195,0.23223213034151394,0.7590043802300834
C:\Users\attar\PycharmProjects\speech-assignment\ABI-1 Corpus\accents\brm_001\female\cxb001,2,F,hoid,OY,3,11.983053000000002,0.08982021150466024,0.3943903440254626,0.7170179653684924
C:\Users\attar\PycharmProjects\speech-assignment\ABI-1 Corpus\accents\brm_001\female\jep001,3,F,heed,IY,2,1.372106,0.04296891643442299,0.735624517785034,0.9046376167647068
C:\Users\attar\PycharmProjects\speech-assignment\ABI-1 Corpus\accents\brm_001\female\jep001,3,F,hard,AA,1,4.470464000000001,0.21638887869203982,0.32898632800816746,0.7424098901387483
C:\Users\attar\PycharmProjects\speech-assignment\ABI-1 Corpus\accents\brm_001\female\jep001,3,F,hoid,OY,3,14.861455000000001,0.07577073262752168,0.7253100501392039,0.8471803482370268
C:\Users\attar\PycharmProjects\speech-assignment\ABI-1 Corpus\accents\brm_001\female\lcg001,4,F,heed,IY,2,1.5988149999999999,0.054549369796138926,0.7813636311254224,0.8247888120264116
C:\Users\attar\PycharmProjects\speech-assignment\ABI-1 Corpus\accents\brm_001\female\lcg001,4,F,hard,AA,1,6.163794,0.17738093985289405,0.2577737077582472,0.7010436681363782
C:\Users\attar\PycharmProjects\speech-assignment\ABI-1 Corpus\accents\brm_001\female\lcg001,4,F,hoid,OY,3,30.301510999999998,0.07700686086619281,0.5044500209347156,0.7481996598161152
C:\Users\attar\PycharmProjects\speech-assignment\ABI-1 Corpus\accents\brm_001\female\mpt001,5,F,heed,IY,2,4.288301,0.03296381141383826,0.7157119986949051,0.8748217592544418
C:\Users\attar\PycharmProjects\speech-assignment\ABI-1 Corpus\accents\brm_001\female\mpt001,5,F,hard,AA,1,9.726830000000001,0.20310722343657206,0.3057928922286513,0.8183641329895424
C:\Users\attar\PycharmProjects\speech-assignment\ABI-1 Corpus\accents\brm_001\female\mpt001,5,F,hoid,OY,3,22.95661,0.06181753577571376,0.6313938760887796,0.7665921091000603
C:\Users\attar\PycharmProjects\speech-assignment\ABI-1 Corpus\accents\brm_001\male\ajh001,6,M,heed,IY,2,1.4591939999999999,0.024088671632073597,0.6298562652515268,0.7939160918464863
C:\Users\attar\PycharmProjects\speech-assignment\ABI-1 Corpus\accents\brm_001\male\ajh001,6,M,hard,AA,1,4.669179000000001,0.13496150385587355,0.24908497724198103,0.7877651548977819
C:\Users\attar\PycharmProjects\speech-assignment\ABI-1 Corpus\accents\brm_001\male\ajh001,6,M,hoid,OY,3,12.880147,0.051579404551613875,0.43139782060928167,0.7857674793421997
C:\Users\attar\PycharmProjects\speech-assignment\ABI-1 Corpus\accents\brm_001\male\ars001,7,M,heed,IY,2,2.9490770000000004,0.22572303194939475,0.6704618536071928,0.8802669248937859
C:\Users\attar\PycharmProjects\speech-assignment\ABI-1 Corpus\accents\brm_001\male\ars001,7,M,hard,AA,1,6.247194,0.1270168812192006,0.23096236236325587,0.7212972955133736
C:\Users\attar\PycharmProjects\speech-assignment\ABI-1 Corpus\accents\brm_001\male\ars001,7,M,hoid,OY,3,24.644410999999998,0.058859896856063895,0.421863856130701,0.6186264650218183
C:\Users\attar\PycharmProjects\speech-assignment\ABI-1 Corpus\accents\brm_001\male\ikp001,8,M,heed,IY,2,1.483085,0.0,0.6243924107681824,0.941378831479132
C:\Users\attar\PycharmProjects\speech-assignment\ABI-1 Corpus\accents\brm_001\male\ikp001,8,M,hard,AA,1,5.610961,0.155375994974258,0.197580518147714,0.7456835239874997
C:\Users\attar\PycharmProjects\speech-assignment\ABI-1 Corpus\accents\brm_001\male\ikp001,8,M,hoid,OY,3,16.623466,0.40467338052933094,0.5725277408151284,0.8969835936223571
C:\Users\attar\PycharmProjects\speech-assignment\ABI-1 Corpus\accents\brm_001\male\jxs001,9,M,heed,IY,2,1.1352749999999998,0.5158772569441441,0.7305310391484664,0.9276302995882179
C:\Users\attar\PycharmProjects\speech-assignment\ABI-1 Corpus\accents\brm_001\male\jxs001,9,M,hard,AA,1,4.037649,0.18947811267030487,0.22824914815724492,0.6584834394502059
C:\Users\attar\PycharmProjects\speech-assignment\ABI-1 Corpus\accents\brm_001\male\jxs001,9,M,hoid,OY,3,15.023670000000001,0.16938434760657475,0.5338234687560116,0.7911010519079734
C:\Users\attar\PycharmProjects\speech-assignment\ABI-1 Corpus\accents\brm_001\male\wxh001,10,M,heed,IY,2,2.1204639999999997,0.011152851579339143,0.5786780320260949,0.7943765158474668
C:\Users\attar\PycharmProjects\speech-assignment\ABI-1 Corpus\accents\brm_001\male\wxh001,10,M,hard,AA,1,6.296283000000001,0.1969717658674104,0.2387576414566479,0.6324812675402172
C:\Users\attar\PycharmProjects\speech-assignment\ABI-1 Corpus\accents\brm_001\male\wxh001,10,M,hoid,OY,3,21.872094999999998,0.21632892330842235,0.5603318233623201,0.7611921411452607
C:\Users\attar\PycharmProjects\speech-assignment\ABI-1 Corpus\accents\ean_001\female\ald001,11,F,heed,IY,2,1.750606,0.04350161866388919,0.7112929883685716,0.8376912561184717
C:\Users\attar\PycharmProjects\speech-assignment\ABI-1 Corpus\accents\ean_001\female\ald001,11,F,hard,AA,1,6.046267,0.17020564908412195,0.2781957434474659,0.7154070556503983
C:\Users\attar\PycharmProjects\speech-assignment\ABI-1 Corpus\accents\ean_001\female\ald001,11,F,hoid,OY,3,20.980693,0.06528357999353,0.3262599992276467,0.8238368224527429
C:\Users\attar\PycharmProjects\speech-assignment\ABI-1 Corpus\accents\ean_001\female\dab001,12,F,heed,IY,2,39.349629,0.03251998485688568,0.6837334221467627,0.8066671181427466
C:\Users\attar\PycharmProjects\speech-assignment\ABI-1 Corpus\accents\ean_001\female\dab001,12,F,hard,AA,1,6.62853,0.17884895338603357,0.2855737874465499,0.6740930878885638
C:\Users\attar\PycharmProjects\speech-assignment\ABI-1 Corpus\accents\ean_001\female\dab001,12,F,hoid,OY,3,20.718151999999996,0.09381521733739509,0.29063280107672534,0.6580873353508914
C:\Users\attar\PycharmProjects\speech-assignment\ABI-1 Corpus\accents\ean_001\female\jkb001,13,F,heed,IY,2,2.565115,0.04743253778348704,0.6743694627703599,0.8733825247050783
C:\Users\attar\PycharmProjects\speech-assignment\ABI-1 Corpus\accents\ean_001\female\jkb001,13,F,hard,AA,1,6.929249,0.14631740396095136,0.26018767473690313,0.6854484684342197
C:\Users\attar\PycharmProjects\speech-assignment\ABI-1 Corpus\accents\ean_001\female\jkb001,13,F,hoid,OY,3,18.310129,0.05434520488978942,0.2783544630555519,0.730257111272835
C:\Users\attar\PycharmProjects\speech-assignment\ABI-1 Corpus\accents\ean_001\female\ljl001,14,F,heed,IY,2,2.259516,0.05467935378021272,0.7698750648489926,0.8857006289899774
C:\Users\attar\PycharmProjects\speech-assignment\ABI-1 Corpus\accents\ean_001\female\ljl001,14,F,hard,AA,1,6.229523,0.16287442560346022,0.24630339041365099,0.9675640783028163
C:\Users\attar\PycharmProjects\speech-assignment\ABI-1 Corpus\accents\ean_001\female\ljl001,14,F,hoid,OY,3,19.10924,0.06350909835897493,0.46805067121221244,0.7122233298855719
C:\Users\attar\PycharmProjects\speech-assignment\ABI-1 Corpus\accents\ean_001\female\nxp001,15,F,heed,IY,2,31.736518999999998,0.03660351162594358,0.6592019109606698,0.8602697981912575
C:\Users\attar\PycharmProjects\speech-assignment\ABI-1 Corpus\accents\ean_001\female\nxp001,15,F,hard,AA,1,7.096392,0.16820663846878367,0.2771186742859441,0.766147149492141
C:\Users\attar\PycharmProjects\speech-assignment\ABI-1 Corpus\accents\ean_001\female\nxp001,15,F,hoid,OY,3,21.647675,0.06818719618363757,0.5603133835633323,0.7131061020091094
C:\Users\attar\PycharmProjects\speech-assignment\ABI-1 Corpus\accents\ean_001\male\asp001,16,M,heed,IY,2,1.2246739999999998,0.041240267782129504,0.6260760779453943,0.7294300959887453
C:\Users\attar\PycharmProjects\speech-assignment\ABI-1 Corpus\accents\ean_001\male\asp001,16,M,hard,AA,1,5.5895220000000005,0.22299252194054564,0.2929588316479644,0.7636824582692228
C:\Users\attar\PycharmProjects\speech-assignment\ABI-1 Corpus\accents\ean_001\male\asp001,16,M,hoid,OY,3,23.787734,0.06767563659596242,0.32459785659492213,0.7940291675994616
C:\Users\attar\PycharmProjects\speech-assignment\ABI-1 Corpus\accents\ean_001\male\baj001,17,M,heed,IY,2,40.419675,0.05609495694960226,0.5962287513218014,0.7928706401476202
C:\Users\attar\PycharmProjects\speech-assignment\ABI-1 Corpus\accents\ean_001\male\baj001,17,M,hard,AA,1,6.196158,0.1747423796536495,0.351827858554795,0.7321378379119206
C:\Users\attar\PycharmProjects\speech-assignment\ABI-1 Corpus\accents\ean_001\male\baj001,17,M,hoid,OY,3,17.276564,0.05623767731001317,0.4589296947601253,0.7434433959280133
C:\Users\attar\PycharmProjects\speech-assignment\ABI-1 Corpus\accents\ean_001\male\ifp001,18,M,heed,IY,2,1.715833,0.008927901682343952,0.5838710736329156,0.9528362388960778
C:\Users\attar\PycharmProjects\speech-assignment\ABI-1 Corpus\accents\ean_001\male\ifp001,18,M,hard,AA,1,9.213675,0.1862191176110348,0.33875162799625047,0.7355115693329577
C:\Users\attar\PycharmProjects\speech-assignment\ABI-1 Corpus\accents\ean_001\male\ifp001,18,M,hoid,OY,3,27.537594000000002,0.21066513451263935,0.546785591964042,0.9335063918478518
C:\Users\attar\PycharmProjects\speech-assignment\ABI-1 Corpus\accents\ean_001\male\mjc002,19,M,heed,IY,2,0.736311,0.027343864138285583,0.6226389695923117,0.7673187486638909
C:\Users\attar\PycharmProjects\speech-assignment\ABI-1 Corpus\accents\ean_001\male\mjc002,19,M,hard,AA,1,4.54509,0.1261106105733727,0.23061710220360343,0.6570432937845114
C:\Users\attar\PycharmProjects\speech-assignment\ABI-1 Corpus\accents\ean_001\male\mjc002,19,M,hoid,OY,3,14.664871,0.05991667232909867,0.4895223277889245,0.6754456259233028
C:\Users\attar\PycharmProjects\speech-assignment\ABI-1 Corpus\accents\ean_001\male\spd001,20,M,heed,IY,2,1.9767329999999999,0.03214230905008454,0.6441954044701502,0.7969608370796417
C:\Users\attar\PycharmProjects\speech-assignment\ABI-1 Corpus\accents\ean_001\male\spd001,20,M,hard,AA,1,7.283413999999999,0.157513972060917,0.265081290204722,0.6960593492346632
C:\Users\attar\PycharmProjects\speech-assignment\ABI-1 Corpus\accents\ean_001\male\spd001,20,M,hoid,OY,3,19.385942,0.07570911107832733,0.2855911595288949,0.6418900812591899
C:\Users\attar\PycharmProjects\speech-assignment\ABI-1 Corpus\accents\eyk_001\female\cet001,21,F,heed,IY,2,2.240523,0.046875072722760786,0.7250884432416604,0.8676002786062457
C:\Users\attar\PycharmProjects\speech-assignment\ABI-1 Corpus\accents\eyk_001\female\cet001,21,F,hard,AA,1,7.934392000000001,0.21454686039457274,0.39375948166144087,0.7695135370882275
C:\Users\attar\PycharmProjects\speech-assignment\ABI-1 Corpus\accents\eyk_001\female\cet001,21,F,hoid,OY,3,25.169196999999997,0.06591989631422177,0.49940548449821576,0.6827686421163264
C:\Users\attar\PycharmProjects\speech-assignment\ABI-1 Corpus\accents\eyk_001\female\hxc001,22,F,heed,IY,2,1.415714,0.028190514098581945,0.7646636985079293,0.8396130053037852
C:\Users\attar\PycharmProjects\speech-assignment\ABI-1 Corpus\accents\eyk_001\female\hxc001,22,F,hard,AA,1,4.814959,0.2450377839343272,0.35310135277853977,0.7782764046618434
C:\Users\attar\PycharmProjects\speech-assignment\ABI-1 Corpus\accents\eyk_001\female\hxc001,22,F,hoid,OY,3,15.766125000000002,0.08942775206712159,0.6103162618195331,0.8565924258657269
C:\Users\attar\PycharmProjects\speech-assignment\ABI-1 Corpus\accents\eyk_001\female\jfj001,23,F,heed,IY,2,1.225656,0.05510179041843017,0.7701369213383213,0.9253038284312626
C:\Users\attar\PycharmProjects\speech-assignment\ABI-1 Corpus\accents\eyk_001\female\jfj001,23,F,hard,AA,1,5.998095000000001,0.2012202999996593,0.42733339371794593,0.7082780773751655
C:\Users\attar\PycharmProjects\speech-assignment\ABI-1 Corpus\accents\eyk_001\female\jfj001,23,F,hoid,OY,3,51.88468700000001,0.11314654338856692,0.49043769166480045,0.7045971214002384
C:\Users\attar\PycharmProjects\speech-assignment\ABI-1 Corpus\accents\eyk_001\female\sjt001,24,F,heed,IY,2,1.8755449999999996,0.037265831681012315,0.6392148655295127,0.8378333636047585
C:\Users\attar\PycharmProjects\speech-assignment\ABI-1 Corpus\accents\eyk_001\female\sjt001,24,F,hard,AA,1,5.012650000000001,0.20848308917207264,0.39654014081534233,0.7300515584330757
C:\Users\attar\PycharmProjects\speech-assignment\ABI-1 Corpus\accents\eyk_001\female\sjt001,24,F,hoid,OY,3,25.898998,0.058812577546003025,0.5199043756353601,0.6629865132730159
C:\Users\attar\PycharmProjects\speech-assignment\ABI-1 Corpus\accents\eyk_001\female\sxc002,25,F,heed,IY,2,2.2145040000000003,0.06222753366238049,0.6856879958519749,0.8496047248986757
C:\Users\attar\PycharmProjects\speech-assignment\ABI-1 Corpus\accents\eyk_001\female\sxc002,25,F,hard,AA,1,5.255025,0.2269009427030714,0.34319759611208694,0.7423525695132822
C:\Users\attar\PycharmProjects\speech-assignment\ABI-1 Corpus\accents\eyk_001\female\sxc002,25,F,hoid,OY,3,19.543608999999996,0.07344112278495964,0.588813321131152,0.6884573883711766
C:\Users\attar\PycharmProjects\speech-assignment\ABI-1 Corpus\accents\eyk_001\male\ajt001,26,M,heed,IY,2,3.103119,0.02739062928530713,0.5953118375799351,0.7589545777105601
C:\Users\attar\PycharmProjects\speech-assignment\ABI-1 Corpus\accents\eyk_001\male\ajt001,26,M,hard,AA,1,6.8049599999999995,0.16766964937593978,0.32822573278186246,0.6520244788369873
C:\Users\attar\PycharmProjects\speech-assignment\ABI-1 Corpus\accents\eyk_001\male\ajt001,26,M,hoid,OY,3,61.920767,0.2308628455311593,0.5781109980969537,0.8349918721335571
C:\Users\attar\PycharmProjects\speech-assignment\ABI-1 Corpus\accents\eyk_001\male\ccw001,27,M,heed,IY,2,1.68265,0.02754835052430767,0.6605025303790901,0.8122454887370965
C:\Users\attar\PycharmProjects\speech-assignment\ABI-1 Corpus\accents\eyk_001\male\ccw001,27,M,hard,AA,1,4.216657,0.15233766777195124,0.29703140313068455,0.73029662905284
C:\Users\attar\PycharmProjects\speech-assignment\ABI-1 Corpus\accents\eyk_001\male\ccw001,27,M,hoid,OY,3,11.867484999999999,0.05166243041666891,0.5512961103636161,0.7346586823583023
C:\Users\attar\PycharmProjects\speech-assignment\ABI-1 Corpus\accents\eyk_001\male\dwc001,28,M,heed,IY,2,1.354146,0.020636305581502642,0.626622859132259,0.7123474810412529
C:\Users\attar\PycharmProjects\speech-assignment\ABI-1 Corpus\accents\eyk_001\male\dwc001,28,M,hard,AA,1,3.8974789999999997,0.1579163739624534,0.3525038012373208,0.6096404803960382
C:\Users\attar\PycharmProjects\speech-assignment\ABI-1 Corpus\accents\eyk_001\male\dwc001,28,M,hoid,OY,3,11.813446,0.07688154388012476,0.3468908517786102,0.5990477523782044
C:\Users\attar\PycharmProjects\speech-assignment\ABI-1 Corpus\accents\eyk_001\male\jmd001,29,M,heed,IY,2,1.1343070000000002,0.015663630867174882,0.6184024140648904,0.7291599371009436
C:\Users\attar\PycharmProjects\speech-assignment\ABI-1 Corpus\accents\eyk_001\male\jmd001,29,M,hard,AA,1,5.690715,0.20198858197192057,0.3144689285496321,0.5336376118293551
C:\Users\attar\PycharmProjects\speech-assignment\ABI-1 Corpus\accents\eyk_001\male\jmd001,29,M,hoid,OY,3,16.469718,0.07670509930576505,0.40699559440296756,0.6511401161257653
C:\Users\attar\PycharmProjects\speech-assignment\ABI-1 Corpus\accents\eyk_001\male\ljk001,30,M,heed,IY,2,1.676822,0.004979248419357264,0.5989275508058741,0.7197929019035758
C:\Users\attar\PycharmProjects\speech-assignment\ABI-1 Corpus\accents\eyk_001\male\ljk001,30,M,hard,AA,1,4.630564000000001,0.20679255885989983,0.5577372992830485,0.8709735802183618
C:\Users\attar\PycharmProjects\speech-assignment\ABI-1 Corpus\accents\eyk_001\male\ljk001,30,M,hoid,OY,3,20.617580999999998,0.017451875508176454,0.5237034484900779,0.654996033939518
C:\Users\attar\PycharmProjects\speech-assignment\ABI-1 Corpus\accents\ilo_001\female\csg001,31,F,heed,IY,2,1.125779,0.036229316415430216,0.6841643726780676,0.8577248664839935
C:\Users\attar\PycharmProjects\speech-assignment\ABI-1 Corpus\accents\ilo_001\female\csg001,31,F,hard,AA,1,3.300161,0.18980236130584677,0.223482590857672,0.6525874210076558
C:\Users\attar\PycharmProjects\speech-assignment\ABI-1 Corpus\accents\ilo_001\female\csg001,31,F,hoid,OY,3,9.752315999999999,0.09191409592123388,0.3519359042383961,0.7163698691682076
C:\Users\attar\PycharmProjects\speech-assignment\ABI-1 Corpus\accents\ilo_001\female\jrg001,32,F,heed,IY,2,1.665392,0.038904783659802065,0.7146553170978637,0.8290201561873234
C:\Users\attar\PycharmProjects\speech-assignment\ABI-1 Corpus\accents\ilo_001\female\jrg001,32,F,hard,AA,1,4.59033,0.1742380678820241,0.24085975707187518,0.7870866385256133
C:\Users\attar\PycharmProjects\speech-assignment\ABI-1 Corpus\accents\ilo_001\female\jrg001,32,F,hoid,OY,3,13.076419000000001,0.09502255817291869,0.42650988372696746,0.724292050783729
C:\Users\attar\PycharmProjects\speech-assignment\ABI-1 Corpus\accents\ilo_001\female\jxo001,33,F,heed,IY,2,1.360572,0.040687055991488155,0.717335587425351,0.8477262958219083
C:\Users\attar\PycharmProjects\speech-assignment\ABI-1 Corpus\accents\ilo_001\female\jxo001,33,F,hard,AA,1,4.623803,0.17032345416651754,0.28877719164025084,0.7303372830551081
C:\Users\attar\PycharmProjects\speech-assignment\ABI-1 Corpus\accents\ilo_001\female\jxo001,33,F,hoid,OY,3,15.611186999999997,0.0946704411928341,0.5461723797742096,0.7350703709670464
C:\Users\attar\PycharmProjects\speech-assignment\ABI-1 Corpus\accents\ilo_001\female\rlg001,34,F,heed,IY,2,2.2842170000000004,0.02880448784864094,0.7522718424080609,0.8637493162942994
C:\Users\attar\PycharmProjects\speech-assignment\ABI-1 Corpus\accents\ilo_001\female\rlg001,34,F,hard,AA,1,5.915179,0.1585179362116612,0.28170109670100046,0.6994694870849917
C:\Users\attar\PycharmProjects\speech-assignment\ABI-1 Corpus\accents\ilo_001\female\rlg001,34,F,hoid,OY,3,14.271083999999998,0.112635662233856,0.5703859451224761,0.7624715970137835
C:\Users\attar\PycharmProjects\speech-assignment\ABI-1 Corpus\accents\ilo_001\female\rxb001,35,F,heed,IY,2,2.140426,0.021507194772338714,0.6439328180493675,0.8379292996219805
C:\Users\attar\PycharmProjects\speech-assignment\ABI-1 Corpus\accents\ilo_001\female\rxb001,35,F,hard,AA,1,4.560161000000001,0.18436846768960036,0.2990237850344321,0.7017359503775796
C:\Users\attar\PycharmProjects\speech-assignment\ABI-1 Corpus\accents\ilo_001\female\rxb001,35,F,hoid,OY,3,10.847788,0.11886086362500252,0.46422064125421875,0.686058203591965
C:\Users\attar\PycharmProjects\speech-assignment\ABI-1 Corpus\accents\ilo_001\male\adl001,36,M,heed,IY,2,4.571268,0.027869875072165446,0.6327912808986945,0.7393715071721368
C:\Users\attar\PycharmProjects\speech-assignment\ABI-1 Corpus\accents\ilo_001\male\adl001,36,M,hard,AA,1,7.338653999999998,0.15722621960516792,0.2543454641054026,0.71156461343381
C:\Users\attar\PycharmProjects\speech-assignment\ABI-1 Corpus\accents\ilo_001\male\adl001,36,M,hoid,OY,3,17.163238999999997,0.11372916342681826,0.30362423599023797,0.6704000222191934
C:\Users\attar\PycharmProjects\speech-assignment\ABI-1 Corpus\accents\ilo_001\male\dxa001,37,M,heed,IY,2,0.40171799999999996,0.12239366506837178,0.6434120136829553,0.8620835553804963
C:\Users\attar\PycharmProjects\speech-assignment\ABI-1 Corpus\accents\ilo_001\male\dxa001,37,M,hard,AA,1,2.4619999999999997,0.16592056561778076,0.2634389172949247,0.6571003049700063
C:\Users\attar\PycharmProjects\speech-assignment\ABI-1 Corpus\accents\ilo_001\male\dxa001,37,M,hoid,OY,3,8.375832999999998,0.12350644350715134,0.3330287604698865,0.6311898831059983
C:\Users\attar\PycharmProjects\speech-assignment\ABI-1 Corpus\accents\ilo_001\male\nam001,38,M,heed,IY,2,0.8338369999999999,0.03472503343617532,0.5942824567495316,0.7363848648924579
C:\Users\attar\PycharmProjects\speech-assignment\ABI-1 Corpus\accents\ilo_001\male\nam001,38,M,hard,AA,1,3.1863529999999995,0.1392970107703941,0.2520319324280921,0.5727069422285277
C:\Users\attar\PycharmProjects\speech-assignment\ABI-1 Corpus\accents\ilo_001\male\nam001,38,M,hoid,OY,3,8.951599,0.10404077105870015,0.3454377428625782,0.6002654073087886
C:\Users\attar\PycharmProjects\speech-assignment\ABI-1 Corpus\accents\ilo_001\male\ped001,39,M,heed,IY,2,1.274324,0.02276597316935205,0.6777899466251673,0.7540140686441735
C:\Users\attar\PycharmProjects\speech-assignment\ABI-1 Corpus\accents\ilo_001\male\ped001,39,M,hard,AA,1,4.940943,0.19736589365956253,0.2401006238694501,0.6508085256297929
C:\Users\attar\PycharmProjects\speech-assignment\ABI-1 Corpus\accents\ilo_001\male\ped001,39,M,hoid,OY,3,13.981694,0.3290544733355176,0.6135497085763012,0.7626922132880636
C:\Users\attar\PycharmProjects\speech-assignment\ABI-1 Corpus\accents\ilo_001\male\yaa001,40,M,heed,IY,2,11.996754000000001,0.012659170110067971,0.6343323922580811,0.8564013811187368
C:\Users\attar\PycharmProjects\speech-assignment\ABI-1 Corpus\accents\ilo_001\male\yaa001,40,M,hard,AA,1,2.3572429999999995,0.15501546353386444,0.25787060170350645,0.7167955718771241
C:\Users\attar\PycharmProjects\speech-assignment\ABI-1 Corpus\accents\ilo_001\male\yaa001,40,M,hoid,OY,3,8.385926000000001,0.10696314252164982,0.3833724621856121,0.6877771717911052
C:\Users\attar\PycharmProjects\speech-assignment\ABI-1 Corpus\accents\shl_001\female\ccm001,41,F,heed,IY,2,1.479412,0.012400125578598391,0.6573736724522633,0.8314898482082671
C:\Users\attar\PycharmProjects\speech-assignment\ABI-1 Corpus\accents\shl_001\female\ccm001,41,F,hard,AA,1,5.8863579999999995,0.19268887163413956,0.28941395561893113,0.6200149407513669
C:\Users\attar\PycharmProjects\speech-assignment\ABI-1 Corpus\accents\shl_001\female\ccm001,41,F,hoid,OY,3,15.598055000000002,0.1241140019205608,0.34533190103368944,0.5633398742236752
C:\Users\attar\PycharmProjects\speech-assignment\ABI-1 Corpus\accents\shl_001\female\dsf001,42,F,heed,IY,2,1.187395,0.025536900455804375,0.7110001877417995,0.900162200296987
C:\Users\attar\PycharmProjects\speech-assignment\ABI-1 Corpus\accents\shl_001\female\dsf001,42,F,hard,AA,1,4.246943,0.1572989828175229,0.2591409722000613,0.764993167687096
C:\Users\attar\PycharmProjects\speech-assignment\ABI-1 Corpus\accents\shl_001\female\dsf001,42,F,hoid,OY,3,13.150091999999997,0.08440289133723261,0.4641545571293613,0.6683594155300329
C:\Users\attar\PycharmProjects\speech-assignment\ABI-1 Corpus\accents\shl_001\female\has001,43,F,heed,IY,2,2.8990880000000003,0.022610804711887963,0.646567737796522,0.7931814033072683
C:\Users\attar\PycharmProjects\speech-assignment\ABI-1 Corpus\accents\shl_001\female\has001,43,F,hard,AA,1,14.049165000000002,0.1257529582493592,0.2630615117780168,0.705645268841571
C:\Users\attar\PycharmProjects\speech-assignment\ABI-1 Corpus\accents\shl_001\female\has001,43,F,hoid,OY,3,68.01157300000001,0.07457830561428526,0.46505960954824643,0.6937382988059245
C:\Users\attar\PycharmProjects\speech-assignment\ABI-1 Corpus\accents\shl_001\female\lhg001,44,F,heed,IY,2,1.507491,0.01740628556510866,0.6624621023003874,0.7428293559174998
C:\Users\attar\PycharmProjects\speech-assignment\ABI-1 Corpus\accents\shl_001\female\lhg001,44,F,hard,AA,1,6.170536,0.1616536851696333,0.24336060065551432,0.9984614893564387
C:\Users\attar\PycharmProjects\speech-assignment\ABI-1 Corpus\accents\shl_001\female\lhg001,44,F,hoid,OY,3,17.145892999999997,0.09599921089248756,0.3443680117447051,0.6290120697906356
C:\Users\attar\PycharmProjects\speech-assignment\ABI-1 Corpus\accents\shl_001\female\ppb001,45,F,heed,IY,2,1.002859,0.004307998245533076,0.7474712868720578,0.9210167123882922
C:\Users\attar\PycharmProjects\speech-assignment\ABI-1 Corpus\accents\shl_001\female\ppb001,45,F,hard,AA,1,5.305155000000001,0.16967249717601812,0.28849867781709754,0.6964446494840705
C:\Users\attar\PycharmProjects\speech-assignment\ABI-1 Corpus\accents\shl_001\female\ppb001,45,F,hoid,OY,3,34.84737299999999,0.10359204549392476,0.26540692239560043,0.6965442741683175
C:\Users\attar\PycharmProjects\speech-assignment\ABI-1 Corpus\accents\shl_001\male\abl001,46,M,heed,IY,2,1.6741509999999997,0.013761487451558647,0.5862799221949245,0.874102826839511
C:\Users\attar\PycharmProjects\speech-assignment\ABI-1 Corpus\accents\shl_001\male\abl001,46,M,hard,AA,1,6.774154999999999,0.13542773012292753,0.25361101624795424,0.6440894265280871
C:\Users\attar\PycharmProjects\speech-assignment\ABI-1 Corpus\accents\shl_001\male\abl001,46,M,hoid,OY,3,20.736172,0.06581634842732159,0.364144589359539,0.5104038792253792
C:\Users\attar\PycharmProjects\speech-assignment\ABI-1 Corpus\accents\shl_001\male\cnb001,47,M,heed,IY,2,0.9569830000000001,0.021379901254591716,0.6544062135143437,0.880006514627983
C:\Users\attar\PycharmProjects\speech-assignment\ABI-1 Corpus\accents\shl_001\male\cnb001,47,M,hard,AA,1,4.780266999999999,0.1415032744053298,0.2650250711417726,0.6142199390800299
C:\Users\attar\PycharmProjects\speech-assignment\ABI-1 Corpus\accents\shl_001\male\cnb001,47,M,hoid,OY,3,23.268612,0.053977634237310106,0.4985278531868534,0.6230991341082591
C:\Users\attar\PycharmProjects\speech-assignment\ABI-1 Corpus\accents\shl_001\male\ggg001,48,M,heed,IY,2,1.1399110000000001,0.011777918917946871,0.6939228252192855,0.8900489220954504
C:\Users\attar\PycharmProjects\speech-assignment\ABI-1 Corpus\accents\shl_001\male\ggg001,48,M,hard,AA,1,5.884265000000001,0.15566676428730666,0.2556837114916763,0.6764223747920955
C:\Users\attar\PycharmProjects\speech-assignment\ABI-1 Corpus\accents\shl_001\male\ggg001,48,M,hoid,OY,3,16.049168,0.0626330388600983,0.4667080041610061,0.6543997986547918
C:\Users\attar\PycharmProjects\speech-assignment\ABI-1 Corpus\accents\shl_001\male\jxw001,49,M,heed,IY,2,1.8015630000000002,0.02614957711747327,0.602610228233585,0.7705720671583054
C:\Users\attar\PycharmProjects\speech-assignment\ABI-1 Corpus\accents\shl_001\male\jxw001,49,M,hard,AA,1,4.855853,0.14707206630866457,0.25026660360467157,0.6262176457218966
C:\Users\attar\PycharmProjects\speech-assignment\ABI-1 Corpus\accents\shl_001\male\jxw001,49,M,hoid,OY,3,13.604792,0.03434593382944138,0.5183094773449651,0.6181396092175437
C:\Users\attar\PycharmProjects\speech-assignment\ABI-1 Corpus\accents\shl_001\male\pja001,50,M,heed,IY,2,1.1569859999999998,0.01700768921953956,0.5681831379763606,0.7793140942333128
C:\Users\attar\PycharmProjects\speech-assignment\ABI-1 Corpus\accents\shl_001\male\pja001,50,M,hard,AA,1,4.275956000000001,0.18788281692944084,0.23777775042224164,0.6071780626840999
C:\Users\attar\PycharmProjects\speech-assignment\ABI-1 Corpus\accents\shl_001\male\pja001,50,M,hoid,OY,3,12.952504,0.08649734122686809,0.3366784873397057,0.5744088835395589
